<?xml version="1.0" encoding="utf-8"?>
<!-- Generator: Adobe Illustrator 23.0.6, SVG Export Plug-In . SVG Version: 6.00 Build 0)  -->
<svg version="1.1" id="Layer_1" xmlns="http://www.w3.org/2000/svg" xmlns:xlink="http://www.w3.org/1999/xlink" x="0px" y="0px"
	 viewBox="0 0 547.38 119.32" style="enable-background:new 0 0 547.38 119.32;" xml:space="preserve">
<style type="text/css">
	.st0{clip-path:url(#SVGID_2_);}
	.st1{clip-path:url(#SVGID_4_);}
	.st2{clip-path:url(#SVGID_6_);}
	.st3{clip-path:url(#SVGID_8_);}
</style>
<g>
	<defs>
		<rect id="SVGID_1_" x="-686.03" y="-479.74" width="1920" height="1080"/>
	</defs>
	<clipPath id="SVGID_2_">
		<use xlink:href="#SVGID_1_"  style="overflow:visible;"/>
	</clipPath>
	<path class="st0" d="M17.76,63.76v36.76h7.09c3.33,0,5.94-0.48,7.82-1.45c1.88-0.97,3.31-2.31,4.27-4.03
		c0.97-1.72,1.56-3.76,1.77-6.13c0.22-2.36,0.33-4.94,0.33-7.74c0-2.9-0.16-5.43-0.48-7.58c-0.32-2.15-0.97-3.98-1.93-5.48
		c-1.08-1.5-2.53-2.6-4.35-3.3c-1.83-0.7-4.25-1.05-7.26-1.05H17.76z M17.76,17.65v31.6h7.42c5.48,0,9.16-1.37,11.04-4.11
		c1.88-2.74,2.82-6.75,2.82-12.01c0-5.16-1.05-9.03-3.14-11.61c-2.1-2.58-5.89-3.87-11.37-3.87H17.76z M1.32,116.97V2.17h24.02
		c5.27,0,9.76,0.81,13.46,2.42c3.71,1.61,6.74,3.77,9.11,6.45c2.36,2.69,4.05,5.78,5.08,9.27c1.02,3.49,1.53,7.12,1.53,10.88v4.19
		c0,3.12-0.24,5.75-0.73,7.9c-0.48,2.15-1.21,4.03-2.18,5.64c-1.83,3.01-4.62,5.59-8.38,7.74c3.87,1.83,6.72,4.51,8.55,8.06
		c1.82,3.54,2.74,8.38,2.74,14.51v6.45c0,10.1-2.45,17.84-7.34,23.22c-4.89,5.38-12.71,8.06-23.46,8.06H1.32z"/>
	<path class="st0" d="M85.47,89.88c0,3.98,1.1,6.91,3.31,8.79c2.2,1.88,4.81,2.82,7.82,2.82c3.01,0,5.61-0.94,7.82-2.82
		c2.2-1.88,3.31-4.81,3.31-8.79V29.26c0-3.97-1.1-6.91-3.31-8.79c-2.2-1.88-4.81-2.82-7.82-2.82c-3.01,0-5.62,0.94-7.82,2.82
		c-2.21,1.88-3.31,4.81-3.31,8.79V89.88z M69.03,29.26c0-4.62,0.81-8.71,2.42-12.25c1.61-3.55,3.76-6.5,6.45-8.87
		c2.58-2.26,5.51-3.97,8.79-5.16c3.28-1.18,6.58-1.77,9.92-1.77c3.33,0,6.64,0.59,9.91,1.77c3.28,1.18,6.26,2.9,8.95,5.16
		c2.58,2.37,4.67,5.32,6.29,8.87c1.61,3.55,2.42,7.63,2.42,12.25v60.62c0,4.84-0.81,8.97-2.42,12.41c-1.61,3.44-3.71,6.29-6.29,8.55
		c-2.69,2.36-5.67,4.14-8.95,5.32c-3.28,1.18-6.59,1.77-9.91,1.77c-3.33,0-6.64-0.59-9.92-1.77c-3.28-1.18-6.21-2.96-8.79-5.32
		c-2.69-2.26-4.84-5.1-6.45-8.55c-1.61-3.44-2.42-7.58-2.42-12.41V29.26z"/>
	<path class="st0" d="M154.15,89.88c0,3.98,1.1,6.91,3.31,8.79c2.2,1.88,4.81,2.82,7.82,2.82c3.01,0,5.61-0.94,7.82-2.82
		c2.2-1.88,3.31-4.81,3.31-8.79V29.26c0-3.97-1.1-6.91-3.31-8.79c-2.2-1.88-4.81-2.82-7.82-2.82c-3.01,0-5.62,0.94-7.82,2.82
		c-2.21,1.88-3.31,4.81-3.31,8.79V89.88z M137.71,29.26c0-4.62,0.81-8.71,2.42-12.25c1.61-3.55,3.76-6.5,6.45-8.87
		c2.58-2.26,5.51-3.97,8.79-5.16c3.28-1.18,6.58-1.77,9.92-1.77c3.33,0,6.64,0.59,9.91,1.77c3.28,1.18,6.26,2.9,8.95,5.16
		c2.58,2.37,4.67,5.32,6.29,8.87c1.61,3.55,2.42,7.63,2.42,12.25v60.62c0,4.84-0.81,8.97-2.42,12.41c-1.61,3.44-3.71,6.29-6.29,8.55
		c-2.69,2.36-5.67,4.14-8.95,5.32c-3.28,1.18-6.59,1.77-9.91,1.77c-3.33,0-6.64-0.59-9.92-1.77c-3.28-1.18-6.21-2.96-8.79-5.32
		c-2.69-2.26-4.84-5.1-6.45-8.55c-1.61-3.44-2.42-7.58-2.42-12.41V29.26z"/>
</g>
<polygon points="207.36,116.97 207.36,2.17 223.8,2.17 223.8,54.57 224.12,54.57 248.15,2.17 264.59,2.17 242.18,48.12 
	268.78,116.97 251.37,116.97 232.67,66.02 223.8,82.62 223.8,116.97 "/>
<g>
	<defs>
		<rect id="SVGID_3_" x="-686.03" y="-479.74" width="1920" height="1080"/>
	</defs>
	<clipPath id="SVGID_4_">
		<use xlink:href="#SVGID_3_"  style="overflow:visible;"/>
	</clipPath>
	<path class="st1" d="M370.38,100.66c-0.51-0.24-1.11-0.26-1.69-0.26c-11.31-0.09-22.62-0.19-33.92-0.28c0.64,0,2.7-2.86,3.21-3.38
		c1.15-1.19,2.31-2.37,3.42-3.6c10.57-11.83,23.57-22.22,31.19-36.38c0.19-0.35,0.37-0.7,0.55-1.05
		c7.22-14.24,4.44-32.87-7.28-43.89c-1.53-1.43-3.18-2.72-4.95-3.84c-6.55-4.14-14.5-6.01-22.2-5.21
		c-8.05,12.57-16.11,25.14-24.16,37.71c-0.39,0.61-1.25,2.23-1.25,2.23s0.14,1.54,0.27,2.45c1.33,8.97,5.11,18.1,12.58,23.24
		c3.58-4.1,7.15-8.21,10.73-12.31c-2.42-1.2-4.16-3.5-5.15-6.01c-0.99-2.51-1.29-5.24-1.44-7.93c-0.41-7.67,0.42-15.37-0.01-23.04
		c0,0,10.87,0,11.91,0c6.66,0,12.52,3.75,15.19,9.87c1.95,4.46,2.07,9.58,1.02,14.33c-2.05,9.3-7.9,16.69-14.15,23.68
		c-6.34,7.1-13.38,13.52-20.2,20.14c-4.51,4.38-8.93,8.85-12.99,13.64c3.48,4.92,6.97,9.84,10.45,14.76
		c0.36,0.51,0.74,1.03,1.32,1.27c0.4,0.17,0.86,0.17,1.3,0.17c19.53,0,39.06,0,58.59-0.01c-3.75-5.09-7.5-10.17-11.25-15.26
		c-0.27-0.36-0.54-0.73-0.92-0.96C370.49,100.72,370.44,100.69,370.38,100.66"/>
</g>
<rect x="453.26" y="110.43" width="6.64" height="6.64"/>
<g>
	<defs>
		<rect id="SVGID_5_" x="-686.03" y="-479.74" width="1920" height="1080"/>
	</defs>
	<clipPath id="SVGID_6_">
		<use xlink:href="#SVGID_5_"  style="overflow:visible;"/>
	</clipPath>
	<path class="st2" d="M472.4,107.56c0,1.04,0.29,1.85,0.88,2.41c0.59,0.56,1.38,0.85,2.38,0.85c1.26,0,2.09-0.37,2.51-1.11
		c0.41-0.74,0.66-1.47,0.75-2.21h6.64c0,2.91-0.89,5.25-2.67,7.03c-0.87,0.91-1.91,1.63-3.12,2.15c-1.21,0.52-2.58,0.78-4.1,0.78
		c-2.08,0-3.86-0.43-5.31-1.3c-1.45-0.87-2.57-2.02-3.35-3.45c-0.48-0.87-0.8-1.87-0.98-3c-0.17-1.13-0.26-2.37-0.26-3.71V95.13
		c0-1.35,0.09-2.58,0.26-3.71c0.17-1.13,0.5-2.13,0.98-2.99c0.78-1.43,1.9-2.58,3.35-3.45c1.45-0.87,3.23-1.3,5.31-1.3
		c1.52,0,2.9,0.26,4.13,0.78c1.24,0.52,2.29,1.24,3.16,2.15c1.73,1.95,2.6,4.49,2.6,7.62h-6.64c0-1.34-0.29-2.33-0.88-2.96
		c-0.59-0.63-1.38-0.94-2.38-0.94c-1,0-1.79,0.32-2.38,0.94c-0.59,0.63-0.88,1.57-0.88,2.83V107.56z"/>
	<path class="st2" d="M495.51,107.04c0,1.26,0.29,2.2,0.88,2.83c0.59,0.63,1.38,0.94,2.38,0.94s1.79-0.31,2.38-0.94
		c0.59-0.63,0.88-1.57,0.88-2.83V94.08c0-1.26-0.29-2.2-0.88-2.83c-0.58-0.63-1.38-0.94-2.38-0.94s-1.79,0.31-2.38,0.94
		c-0.59,0.63-0.88,1.57-0.88,2.83V107.04z M488.87,95.13c0-1.35,0.09-2.58,0.26-3.71c0.17-1.13,0.5-2.13,0.98-2.99
		c0.78-1.43,1.9-2.58,3.35-3.45c1.45-0.86,3.22-1.3,5.31-1.3s3.85,0.44,5.31,1.3c1.45,0.87,2.57,2.02,3.35,3.45
		c0.48,0.87,0.8,1.86,0.98,2.99c0.17,1.13,0.26,2.37,0.26,3.71V106c0,1.35-0.09,2.59-0.26,3.71c-0.17,1.13-0.5,2.13-0.98,2.99
		c-0.78,1.43-1.9,2.59-3.35,3.45c-1.45,0.87-3.22,1.31-5.31,1.31s-3.85-0.44-5.31-1.31c-1.45-0.87-2.57-2.02-3.35-3.45
		c-0.48-0.87-0.8-1.86-0.98-2.99c-0.17-1.13-0.26-2.37-0.26-3.71V95.13z"/>
	<path class="st2" d="M513.55,117.07V84.06h6.64v3.19h0.13c0.69-1.04,1.53-1.9,2.51-2.57c0.98-0.67,2.22-1.01,3.74-1.01
		c1.43,0,2.63,0.35,3.58,1.04c0.96,0.7,1.74,1.46,2.34,2.28c0.82-0.91,1.74-1.69,2.74-2.34c1-0.65,2.39-0.98,4.17-0.98
		c0.82,0,1.67,0.14,2.54,0.42c0.87,0.28,1.65,0.75,2.34,1.4c0.69,0.65,1.26,1.49,1.69,2.51c0.43,1.02,0.65,2.27,0.65,3.74v25.33
		h-6.64V94.21c0-1.21-0.28-2.17-0.85-2.86c-0.56-0.69-1.37-1.04-2.41-1.04c-1.26,0-2.13,0.39-2.6,1.17
		c-0.48,0.78-0.72,1.91-0.72,3.39v22.21h-6.64V94.21c0-1.21-0.28-2.17-0.85-2.86c-0.57-0.69-1.37-1.04-2.41-1.04
		c-1.26,0-2.13,0.39-2.6,1.17c-0.48,0.78-0.71,1.91-0.71,3.39v22.21H513.55z"/>
	<path class="st2" d="M444.03,60.59c-2.49-3.4-5.6-6.34-9.17-8.59c-2.38-1.5-4.97-2.75-7.68-3.55l20.22-31.53L436.85,2.29
		c0,0-5.02,7.79-11.44,17.73L413.37,3.26c0,0-16.09-2.89-26.22,11.26c0,0,13.11,19.31,13.11,19.31c-0.06-0.09,0.24-0.74,0.28-0.83
		c0.26-0.74,0.56-1.47,0.89-2.18c0.97-2.14,2.21-4.06,3.68-5.89c1.4-1.75,3.25-3.14,5.34-3.96c2.34-0.92,4.68-0.8,7.15-0.8h6.05
		h1.71C414,37.71,398.39,61.92,398.38,61.93l-0.07,0.1h5.75c2.13-0.05,4.25-0.09,6.38-0.03c4.03,0.12,8.12,0.6,11.86,2.19
		c7.96,3.39,13.71,12.29,12.68,21.02c-1.05,8.89-8.79,16.41-17.87,16.4c-9.48-0.02-19.02-9.32-18.88-18.89
		c-4.48,6.32-8.96,12.64-13.44,18.95c6.86,7.96,14.48,15.05,25.21,16.92c11.15,1.94,22.83-2.08,30.79-10.03
		C453.53,95.85,454.57,74.96,444.03,60.59"/>
</g>
<polygon points="284.65,23.14 284.65,119.32 301.55,97.14 301.6,2.14 "/>
<g>
	<defs>
		<rect id="SVGID_7_" x="-686.03" y="-479.74" width="1920" height="1080"/>
	</defs>
	<clipPath id="SVGID_8_">
		<use xlink:href="#SVGID_7_"  style="overflow:visible;"/>
	</clipPath>
	<path class="st3" d="M292.22,24.21c-2.04,0-7.62-1.07-7.62-1.07l-10.71,12l20.36,5.36L292.22,24.21z"/>
</g>
<g>
	<defs>
		<rect id="SVGID_9_" x="-686.03" y="-479.74" width="1920" height="1080"/>
	</defs>
	<clipPath id="SVGID_10_">
		<use xlink:href="#SVGID_9_"  style="overflow:visible;"/>
	</clipPath>
</g>
</svg>
