<?xml version="1.0" encoding="UTF-8"?>
<svg width="24px" height="24px" viewBox="0 0 32 32" version="1.1" xmlns="http://www.w3.org/2000/svg" xmlns:xlink="http://www.w3.org/1999/xlink">
    <!-- Generator: Sketch 55.2 (78181) - https://sketchapp.com -->
    <title>Icons/navigation/left</title>
    <desc>Created with Sketch.</desc>
    <defs>
        <polygon id="path-1" points="21 9.88 19.097166 8 11 16 19.097166 24 21 22.12 14.8191633 16"></polygon>
    </defs>
    <g id="Icons/navigation/left" stroke="none" stroke-width="1" fill="none" fill-rule="evenodd">
        <rect fill="#FFFFFF" opacity="0" x="0" y="0" width="32" height="32"></rect>
        <mask id="mask-2" fill="white">
            <use xlink:href="#path-1"></use>
        </mask>
        <use id="icon/navigation/chevron_left_24px" fill="#000000" fill-rule="nonzero" xlink:href="#path-1"></use>
        <rect id="Rectangle" fill="#000000" mask="url(#mask-2)" x="0" y="0" width="32" height="32"></rect>
    </g>
</svg>