<?xml version="1.0" encoding="UTF-8"?>
<svg width="24px" height="24px" viewBox="0 0 32 32" version="1.1" xmlns="http://www.w3.org/2000/svg" xmlns:xlink="http://www.w3.org/1999/xlink">
    <defs>
        <path d="M21.645977,6.95514284 C21.4689655,7.18182499 17.245977,12.8488786 11.1264368,13 C11.0505747,13 10.9494253,13 10.8735632,13 C7.1816092,13 3.64137931,10.9850476 0.379310345,6.98032975 L0,6.52696546 L0.354022989,6.07360117 C0.531034483,5.82173213 4.75402299,0.154678541 10.8988506,0.00355711182 C14.691954,-0.0971905075 18.2827586,1.94294878 21.6206897,6.02322736 L22,6.50177856 L21.645977,6.95514284 Z M11.0505747,11.5139726 C15.5011494,11.413225 18.9908046,7.7863107 20.0781609,6.52696546 C17.1701149,3.12673331 14.1103448,1.43921069 10.9494253,1.5147714 C6.49885057,1.61551902 3.0091954,5.21724641 1.92183908,6.50177856 C4.82988506,9.90201071 7.91494253,11.5895333 11.0505747,11.5139726 Z M11,2.82449045 C13.0482759,2.82449045 14.691954,4.46163927 14.691954,6.50177856 C14.691954,8.54191785 13.0229885,10.1790667 11,10.1790667 C8.97701149,10.1790667 7.30804598,8.54191785 7.30804598,6.50177856 C7.30804598,4.46163927 8.97701149,2.82449045 11,2.82449045 Z" id="path-1"></path>
    </defs>
    <g id="Icons/visibility" stroke="none" stroke-width="1" fill="none" fill-rule="evenodd">
        <rect fill="#FFFFFF" opacity="0" x="0" y="0" width="32" height="32"></rect>
        <g id="Rectangle" transform="translate(5.000000, 10.000000)">
            <mask id="mask-2" fill="white">
                <use xlink:href="#path-1"></use>
            </mask>
            <use id="Mask" fill="#000000" fill-rule="nonzero" xlink:href="#path-1"></use>
            <rect fill="#000000" mask="url(#mask-2)" x="-5" y="-10" width="32" height="32"></rect>
        </g>
    </g>
</svg>